Division,WeightClassKg,Place,Name,Team,BodyweightKg,Best3SquatKg,Best3BenchKg,Best3DeadliftKg,TotalKg,Equipment,Event,Sex
Boys,51.71,1,Austin Hernandez,Cotulla,50.76,95.25,56.7,115.67,267.62,Single-ply,SBD,M
Boys,51.71,2,Adrian Narvaiz,Cotulla,49.4,86.18,61.23,115.67,263.08,Single-ply,SBD,M
Boys,51.71,3,Gabe Gonzales,Blanco,46.77,79.38,45.36,92.99,217.72,Single-ply,SBD,M
Boys,55.79,1,David Gil,San Antonio East Central,54.2,102.06,65.77,136.08,303.91,Single-ply,SBD,M
Boys,55.79,2,Brandon Martinez,Cotulla,55.75,106.59,49.9,133.81,290.3,Single-ply,SBD,M
Boys,59.87,1,Sebastian Flores,Blanco,59.87,167.83,122.47,181.44,471.74,Single-ply,SBD,M
Boys,59.87,2,Vincent Villanueva,Floresville,58.88,124.74,92.99,163.29,381.02,Single-ply,SBD,M
Boys,59.87,3,Scott Ramirez,Cotulla,57.74,136.08,83.91,156.49,376.48,Single-ply,SBD,M
Boys,59.87,4,Jerome Martinez,Cotulla,58.47,120.2,77.11,120.2,317.51,Single-ply,SBD,M
Boys,59.87,5,Ernest Garza,Knippa,59.19,92.99,68.04,104.33,265.35,Single-ply,SBD,M
Boys,67.13,1,Justin Guevara,San Antonio Kennedy,65.91,167.83,102.06,217.72,487.61,Single-ply,SBD,M
Boys,67.13,2,Christian Flores,Blanco,64.14,181.44,106.59,176.9,464.93,Single-ply,SBD,M
Boys,67.13,3,Juid Colchado,Cotulla,66.59,181.44,108.86,170.1,460.4,Single-ply,SBD,M
Boys,67.13,4,Garett McDonald,Jourdanton,66.22,197.31,92.99,165.56,455.86,Single-ply,SBD,M
Boys,67.13,5,Taylor Cason,Cotulla,65.91,154.22,92.99,192.78,439.98,Single-ply,SBD,M
Boys,67.13,6,Taylor Weber,Jourdanton,66.32,163.29,104.33,161.03,428.64,Single-ply,SBD,M
Boys,67.13,7,Danny Morales,Karnes City,61.55,161.03,90.72,165.56,417.3,Single-ply,SBD,M
Boys,67.13,8,John Slaughter,Bandera,67.13,151.95,90.72,151.95,394.63,Single-ply,SBD,M
Boys,67.13,9,Sebastian Jimenez,Karnes City,63.28,149.69,86.18,149.69,385.55,Single-ply,SBD,M
Boys,67.13,10,Brian Burns,Bandera,63.14,142.88,79.38,151.95,374.21,Single-ply,SBD,M
Boys,67.13,11,Reagan Leone,Cotulla,66.9,138.35,83.91,149.69,371.95,Single-ply,SBD,M
Boys,67.13,12,Hunter Young #1,Marion,66.09,115.67,74.84,147.42,337.93,Single-ply,SBD,M
Boys,67.13,13,Aaron Urrutia,Del Rio,60.65,108.86,83.91,138.35,331.12,Single-ply,SBD,M
Boys,67.13,14,Greg Flores,Cotulla,66.68,115.67,72.57,142.88,331.12,Single-ply,SBD,M
Boys,67.13,15,Michael Kroll,Karnes City,66.41,106.59,81.65,136.08,324.32,Single-ply,SBD,M
Boys,67.13,16,Cameron Kistner,Marion,62.32,129.27,61.23,127.01,317.51,Single-ply,SBD,M
Boys,67.13,17,Anatolio Ramirez,Cotulla,65.23,111.13,79.38,124.74,315.25,Single-ply,SBD,M
Boys,67.13,18,Ismael Perez,San Antonio Kennedy,60.42,106.59,70.31,133.81,310.71,Single-ply,SBD,M
Boys,67.13,19,Francisco Hernandez,Cotulla,67.04,115.67,65.77,129.27,310.71,Single-ply,SBD,M
Boys,67.13,20,Diego Flores,Marion,65.18,108.86,52.16,117.93,278.96,Single-ply,SBD,M
Boys,67.13,21,Larry Allen,Knippa,66.32,90.72,65.77,106.59,263.08,Single-ply,SBD,M
Boys,67.13,22,Carson Hiebert,Knippa,63.23,90.72,61.23,102.06,254.01,Single-ply,SBD,M
Boys,67.13,DQ,Jeovanni Pina,San Antonio East Central,64.09,99.79,,,,Single-ply,SBD,M
Boys,74.84,1,Josh Herrera,Floresville,73.07,179.17,106.59,192.78,478.54,Single-ply,SBD,M
Boys,74.84,2,Felix Delgado,Jourdanton,74.75,176.9,104.33,165.56,446.79,Single-ply,SBD,M
Boys,74.84,3,Seth Taggs,Floresville,69.08,151.95,104.33,165.56,421.84,Single-ply,SBD,M
Boys,74.84,4,Taylor Neil,San Antonio East Central,73.16,145.15,102.06,136.08,383.29,Single-ply,SBD,M
Boys,74.84,5,Golderer Tilmann,Marion,71.89,122.47,83.91,136.08,342.46,Single-ply,SBD,M
Boys,74.84,6,Ethan Whitehead,Knippa,71.89,61.23,65.77,111.13,238.14,Single-ply,SBD,M
Boys,74.84,DQ,Isaiah Enriquez,Karnes City,73.35,183.7,,,,Single-ply,SBD,M
Boys,74.84,DQ,Jason Pina,San Antonio East Central,71.76,149.69,,,,Single-ply,SBD,M
Boys,82.1,1,Robert Schmidt #4,Karnes City,82.1,235.87,117.93,208.65,562.45,Single-ply,SBD,M
Boys,82.1,2,Brent Gisler,Karnes City,80.74,215.46,142.88,201.85,560.19,Single-ply,SBD,M
Boys,82.1,3,Alejandro Flores,Del Rio,79.65,201.85,122.47,192.78,517.1,Single-ply,SBD,M
Boys,82.1,4,Jordan Lara,Knippa,77.75,190.51,102.06,197.31,489.88,Single-ply,SBD,M
Boys,82.1,5,Giovanni Mendez,Cotulla,81.47,185.97,127.01,176.9,489.88,Single-ply,SBD,M
Boys,82.1,6,Enrique Perez,San Antonio Kennedy,79.97,183.7,108.86,179.17,471.74,Single-ply,SBD,M
Boys,82.1,7,Manuel Ortiz,San Antonio Kennedy,79.83,156.49,113.4,192.78,462.66,Single-ply,SBD,M
Boys,82.1,8,Mario Sanchez,Blanco,78.43,181.44,113.4,163.29,458.13,Single-ply,SBD,M
Boys,82.1,9,Ricky Gonzalez,Del Rio,82.1,147.42,113.4,158.76,419.57,Single-ply,SBD,M
Boys,82.1,10,Eli Gonzalez,Cotulla,79.65,165.56,95.25,129.27,390.09,Single-ply,SBD,M
Boys,82.1,11,Andrew Velasquez,Cotulla,80.69,154.22,106.59,127.01,387.82,Single-ply,SBD,M
Boys,82.1,12,Joseph Sulaica,Del Rio,78.56,138.35,90.72,147.42,376.48,Single-ply,SBD,M
Boys,82.1,13,Dustyne Fritz,Bandera,77.11,117.93,77.11,158.76,353.8,Single-ply,SBD,M
Boys,82.1,14,Atlee McGuire,Knippa,77.16,102.06,77.11,129.27,308.44,Single-ply,SBD,M
Boys,82.1,15,Joe Valdez #3,San Antonio Kennedy,78.61,102.06,65.77,120.2,288.03,Single-ply,SBD,M
Boys,82.1,DQ,John Ledesma,San Antonio East Central,81.65,165.56,,,,Single-ply,SBD,M
Boys,82.1,DQ,Dalton Flanagan,San Antonio East Central,81.51,,,,,Single-ply,SBD,M
Boys,89.81,1,Mitchell Rees,Karnes City,86.09,285.76,145.15,256.28,687.19,Single-ply,SBD,M
Boys,89.81,2,Manny Arguijo,Del Rio,86.64,222.26,145.15,213.19,580.6,Single-ply,SBD,M
Boys,89.81,3,Alex Garza,Cotulla,89.31,206.38,124.74,224.53,555.65,Single-ply,SBD,M
Boys,89.81,4,Andrew Stillwell,Cotulla,89.04,206.38,131.54,165.56,503.49,Single-ply,SBD,M
Boys,89.81,5,Tucker Walters,Marion,83.64,179.17,104.33,215.46,498.95,Single-ply,SBD,M
Boys,89.81,6,Sebastian Segura,Karnes City,87.91,201.85,102.06,185.97,489.88,Single-ply,SBD,M
Boys,89.81,7,David Guajardo,San Antonio East Central,86.86,167.83,115.67,188.24,471.74,Single-ply,SBD,M
Boys,89.81,8,Kaleb Roberts,Floresville,88.18,161.03,92.99,161.03,415.04,Single-ply,SBD,M
Boys,89.81,9,Jack Fournier,Jourdanton,84.05,147.42,74.84,133.81,356.07,Single-ply,SBD,M
Boys,89.81,DQ,Derek Jenschke,Jourdanton,85.91,161.03,,,,Single-ply,SBD,M
Boys,89.81,DQ,Giovanni Narvaiz,Cotulla,84.05,219.99,111.13,,,Single-ply,SBD,M
Boys,89.81,DQ,Elian Consuegra,Blanco,85.96,192.78,138.35,,,Single-ply,SBD,M
Boys,99.79,1,Justin Salazar,Cotulla,99.16,217.72,122.47,224.53,564.72,Single-ply,SBD,M
Boys,99.79,2,Franciso Duran,Marion,94.21,204.12,131.54,217.72,553.38,Single-ply,SBD,M
Boys,99.79,3,Angel Aguilar,Bandera,98.43,167.83,120.2,181.44,469.47,Single-ply,SBD,M
Boys,99.79,4,Brandon Phipps,Blanco,90.54,154.22,133.81,174.63,462.66,Single-ply,SBD,M
Boys,99.79,5,Adam Andres,Knippa,96.57,136.08,92.99,142.88,371.95,Single-ply,SBD,M
Boys,99.79,6,Sam Grodman,Bandera,91.85,124.74,83.91,136.08,344.73,Single-ply,SBD,M
Boys,99.79,7,Alex Martinez #10,Blanco,92.22,102.06,83.91,124.74,310.71,Single-ply,SBD,M
Boys,99.79,DQ,Justice Gandy,San Antonio East Central,96.07,129.27,,,,Single-ply,SBD,M
Boys,99.79,DQ,Max Equia,San Antonio Kennedy,98.61,183.7,,,,Single-ply,SBD,M
Boys,109.77,1,Joseph Martinez,Cotulla,101.83,249.48,131.54,244.94,625.96,Single-ply,SBD,M
Boys,109.77,2,Jose Mendoza #1,Del Rio,108.77,242.67,154.22,219.99,616.89,Single-ply,SBD,M
Boys,109.77,3,Rolando Pulido,Floresville,106.46,192.78,115.67,249.48,557.92,Single-ply,SBD,M
Boys,109.77,4,Chance Horton,Blanco,109.23,217.72,140.61,165.56,523.9,Single-ply,SBD,M
Boys,109.77,5,Dizan Rodriguez,Del Rio,100.56,197.31,127.01,185.97,510.29,Single-ply,SBD,M
Boys,109.77,6,Nathaniel Gomez,Karnes City,102.83,199.58,113.4,183.7,496.68,Single-ply,SBD,M
Boys,109.77,7,Mauricio Chavez,Floresville,103.15,161.03,115.67,204.12,480.81,Single-ply,SBD,M
Boys,109.77,8,Justin Beccera,San Antonio East Central,107.55,183.7,104.33,183.7,471.74,Single-ply,SBD,M
Boys,109.77,9,Paul Martinez,San Antonio East Central,103.37,158.76,79.38,172.37,410.5,Single-ply,SBD,M
Boys,109.77,10,Colton Perkins,Bandera,108.91,170.1,102.06,136.08,408.23,Single-ply,SBD,M
Boys,109.77,11,Abraham Rosas,Del Rio,106.82,131.54,74.84,183.7,390.09,Single-ply,SBD,M
Boys,109.77,12,Francisco Hinojosa,Cotulla,103.42,122.47,86.18,131.54,340.19,Single-ply,SBD,M
Boys,124.74,1,Baldomero Ortega,Cotulla,114.67,210.92,124.74,249.48,585.13,Single-ply,SBD,M
Boys,124.74,2,Jace Gonzales,Karnes City,117.39,233.6,142.88,208.65,585.13,Single-ply,SBD,M
Boys,124.74,3,Eric Rodriguez,Floresville,111.9,206.38,131.54,197.31,535.24,Single-ply,SBD,M
Boys,124.74,4,Logan Crane,Bandera,113.94,204.12,142.88,183.7,530.7,Single-ply,SBD,M
Boys,124.74,5,Donny Brown,Floresville,121.25,161.03,129.27,165.56,455.86,Single-ply,SBD,M
Boys,124.74+,1,Joseph Rodriguez,Del Rio,161.84,215.46,140.61,247.21,603.28,Single-ply,SBD,M
Boys,124.74+,2,Pedro Castillo,Floresville,129.09,206.38,142.88,181.44,530.7,Single-ply,SBD,M
Boys,124.74+,3,Andrew Romero,San Antonio Kennedy,128,201.85,161.03,165.56,528.44,Single-ply,SBD,M
Boys,124.74+,4,Kevin Del Toro,San Antonio Kennedy,128.19,208.65,97.52,215.46,521.63,Single-ply,SBD,M
Boys,124.74+,5,Enrique Paredes,Cotulla,197.49,183.7,127.01,183.7,494.42,Single-ply,SBD,M
Boys,124.74+,6,Ronnie Galindo,Del Rio,132.4,176.9,92.99,181.44,451.32,Single-ply,SBD,M
Boys,124.74+,7,Adrian Gomez,Knippa,130,163.29,106.59,147.42,417.3,Single-ply,SBD,M
Boys,124.74+,8,Anthony Suttels,San Antonio Kennedy,130.14,136.08,95.25,147.42,378.75,Single-ply,SBD,M
Boys,124.74+,9,Javier Lopez,Cotulla,137.8,165.56,88.45,113.4,367.41,Single-ply,SBD,M
Boys,124.74+,10,Abee Hinojosa,Del Rio,137.44,233.6,117.93,,351.53,Single-ply,SB,M
Boys,124.74+,11,Gerry Gonzalez,Del Rio,126.55,147.42,88.45,,235.87,Single-ply,SB,M
