Division,WeightClassKg,Place,Name,Team,BodyweightKg,Best3SquatKg,Best3BenchKg,Best3DeadliftKg,TotalKg,Equipment,Event,Sex
Boys,51.71,1,Ricky Lopez,Frisco Centennial,51.17,149.69,92.99,172.37,415.04,Single-ply,SBD,M
Boys,51.71,2,Gabriel Williams,Cedar Hill,51.07,131.54,79.38,147.42,358.34,Single-ply,SBD,M
Boys,51.71,3,Darrian Butler,Denison,51.71,140.61,63.5,151.95,356.07,Single-ply,SBD,M
Boys,51.71,4,Rolando Gualardo,Frisco Centennial,51.35,120.2,65.77,124.74,310.71,Single-ply,SBD,M
Boys,51.71,5,Cooper Macaulay,Everman,50.71,106.59,63.5,120.2,290.3,Single-ply,SBD,M
Boys,51.71,6,Brandon Balderama,Saginaw,51.71,111.13,56.7,122.47,290.3,Single-ply,SBD,M
Boys,51.71,7,Joshua Oyewele,North Crowley,50.98,106.59,58.97,117.93,283.5,Single-ply,SBD,M
Boys,51.71,8,Kamdyn Benjamin,Cedar Hill,49.8,97.52,63.5,113.4,274.42,Single-ply,SBD,M
Boys,51.71,9,Precious Essien,Frisco Liberty,51.07,108.86,49.9,115.67,274.42,Single-ply,SBD,M
Boys,51.71,10,Eric Thompson,Northwest Eaton,51.71,102.06,56.7,115.67,274.42,Single-ply,SBD,M
Boys,51.71,11,Will Best,Frisco Wakeland,51.35,104.33,54.43,106.59,265.35,Single-ply,SBD,M
Boys,51.71,DQ,Reid Morris,Frisco Wakeland,50.8,99.79,47.63,,,Single-ply,SBD,M
Boys,51.71,DQ,Jameson Donahue,Carrollton Turner,51.71,,,,,Single-ply,SBD,M
Boys,51.71,DQ,Tyler Lacy,South Garland,51.71,111.13,,,,Single-ply,SBD,M
Boys,55.79,1,Nate Lunsford,Frisco Wakeland,54.25,183.7,95.25,176.9,455.86,Single-ply,SBD,M
Boys,55.79,2,Jordan Estell,North Mesquite,55.34,145.15,81.65,185.97,412.77,Single-ply,SBD,M
Boys,55.79,3,Brady Macaulay,Everman,55.16,154.22,79.38,174.63,408.23,Single-ply,SBD,M
Boys,55.79,4,Felipe Hernandez #2,Saginaw,55.7,147.42,88.45,158.76,394.63,Single-ply,SBD,M
Boys,55.79,5,AJ Starks,Cedar Hill,53.98,149.69,81.65,161.03,392.36,Single-ply,SBD,M
Boys,55.79,6,Gavin Carroll,Frisco Wakeland,55.25,151.95,86.18,154.22,392.36,Single-ply,SBD,M
Boys,55.79,7,Michael Parsons,Bishop Lynch,55.25,149.69,83.91,149.69,383.29,Single-ply,SBD,M
Boys,55.79,8,Kevin Cottrell,South Garland,54.79,124.74,90.72,161.03,376.48,Single-ply,SBD,M
Boys,55.79,9,Ivan Shepherd,Cedar Hill,52.62,131.54,81.65,154.22,367.41,Single-ply,SBD,M
Boys,55.79,10,Anthony Nixon,Everman,55.52,138.35,63.5,165.56,367.41,Single-ply,SBD,M
Boys,55.79,11,Jabril Clayborne,North Crowley,54.88,127.01,79.38,151.95,358.34,Single-ply,SBD,M
Boys,55.79,12,Matt Pezoa,Carrollton Turner,55.34,124.74,56.7,124.74,306.17,Single-ply,SBD,M
Boys,59.87,1,Daylon Jackson,Everman,59.6,167.83,99.79,179.17,446.79,Single-ply,SBD,M
Boys,59.87,2,Baldemar Carbajal,Sherman,59.87,158.76,108.86,176.9,444.52,Single-ply,SBD,M
Boys,59.87,3,Houston Johnson,North Crowley,59.87,161.03,86.18,176.9,424.11,Single-ply,SBD,M
Boys,59.87,4,Edgar Aguirre,Everman,57.15,142.88,83.91,161.03,387.82,Single-ply,SBD,M
Boys,59.87,5,Dacion Brown,Fort Worth Arlington Heights,58.6,138.35,90.72,154.22,383.29,Single-ply,SBD,M
Boys,59.87,6,Tin Nguyen,Weatherford,59.78,151.95,74.84,156.49,383.29,Single-ply,SBD,M
Boys,59.87,7,Zeke Castillo,Frisco Wakeland,58.79,145.15,79.38,154.22,378.75,Single-ply,SBD,M
Boys,59.87,8,Carlos Davila,Keller Central,59.78,147.42,79.38,142.88,369.68,Single-ply,SBD,M
Boys,59.87,9,Joseph Terrance,Mansfield Timberview,57.24,127.01,90.72,140.61,358.34,Single-ply,SBD,M
Boys,,NS,Dakota Gilley,Garland Rowlett,,,,,,Single-ply,SBD,M
Boys,59.87,DQ,Wilson Kirkbride,Denison,59.06,,,,,Single-ply,SBD,M
Boys,59.87,DQ,Romandrey Manning,South Garland,59.6,,,,,Single-ply,SBD,M
Boys,67.13,1,A'Daireon Madlock,North Mesquite,67.13,215.46,104.33,254.01,573.79,Single-ply,SBD,M
Boys,67.13,2,Casin Santillo,Hurst Bell,65.95,208.65,158.76,204.12,571.53,Single-ply,SBD,M
Boys,67.13,3,Brandon Jackson,Cedar Hill,67.04,195.04,145.15,204.12,544.31,Single-ply,SBD,M
Boys,67.13,4,Ja'Rod Bedford,Cedar Hill,67.04,229.06,102.06,185.97,517.1,Single-ply,SBD,M
Boys,67.13,5,Jake Schumacher,Frisco Centennial,66.86,190.51,127.01,188.24,505.76,Single-ply,SBD,M
Boys,67.13,6,Jake Ratcliff,Denison,66.22,188.24,102.06,195.04,485.34,Single-ply,SBD,M
Boys,67.13,7,Jett Ertle,Keller,66.22,183.7,97.52,197.31,478.54,Single-ply,SBD,M
Boys,67.13,8,Armani Johnson,Little Elm,66.59,183.7,102.06,185.97,471.74,Single-ply,SBD,M
Boys,67.13,9,Fred Tshitoko,Saginaw,66.86,176.9,90.72,199.58,467.2,Single-ply,SBD,M
Boys,67.13,10,Garret McGuire,Cedar Hill,66.86,183.7,95.25,185.97,464.93,Single-ply,SBD,M
Boys,67.13,11,E'Darion Williams,Cedar Hill,65.14,179.17,95.25,181.44,455.86,Single-ply,SBD,M
Boys,67.13,12,Brandon Blond,Mansfield Timberview,66.04,188.24,108.86,158.76,455.86,Single-ply,SBD,M
Boys,74.84,1,George Kennard,Frisco Wakeland,74.48,226.8,142.88,219.99,589.67,Single-ply,SBD,M
Boys,74.84,2,Isaiah Washington,Everman,74.03,231.33,131.54,222.26,585.13,Single-ply,SBD,M
Boys,74.84,3,Miracle Broussard,Cedar Hill,72.57,222.26,140.61,217.72,580.6,Single-ply,SBD,M
Boys,74.84,4,Stephen Mancillas,Dallas Jesuit,72.3,217.72,129.27,215.46,562.45,Single-ply,SBD,M
Boys,74.84,5,Marcus King,Wichita Falls,74.21,217.72,111.13,226.8,555.65,Single-ply,SBD,M
Boys,74.84,6,Cody Oliver,Keller,74.12,210.92,140.61,192.78,544.31,Single-ply,SBD,M
Boys,74.84,7,Matt Hargis,Rockwall-Heath,74.12,201.85,136.08,201.85,539.77,Single-ply,SBD,M
Boys,74.84,8,Kyle Oldham,Royse City,74.12,195.04,127.01,197.31,519.36,Single-ply,SBD,M
Boys,74.84,DQ,Dominique McBride,North Mesquite,74.84,242.67,122.47,254.01,,Single-ply,SBD,M
Boys,,NS,Travon Crockett,North Mesquite,,,,,,Single-ply,SBD,M
Boys,,NS,Justin Gipson,Frisco Reedy,,,,,,Single-ply,SBD,M
Boys,74.84,DQ,Hennon Cooper,Cedar Hill,71.67,188.24,117.93,,,Single-ply,SBD,M
Boys,82.1,1,James Worthy,Everman,82.01,247.21,138.35,238.14,623.69,Single-ply,SBD,M
Boys,82.1,2,Brian Aguilar,Everman,80.38,240.4,113.4,235.87,589.67,Single-ply,SBD,M
Boys,82.1,3,Dalton Anderson,Lake Dallas,80.47,215.46,131.54,235.87,582.87,Single-ply,SBD,M
Boys,82.1,4,Jorden Craig,Hurst Bell,80.92,217.72,147.42,215.46,580.6,Single-ply,SBD,M
Boys,82.1,5,Garet Gill,Wichita Falls,79.2,235.87,127.01,210.92,573.79,Single-ply,SBD,M
Boys,82.1,6,Caleb Scott,Cedar Hill,81.1,226.8,124.74,206.38,557.92,Single-ply,SBD,M
Boys,82.1,7,Isaac Williams,Frisco Centennial,81.92,215.46,127.01,215.46,557.92,Single-ply,SBD,M
Boys,82.1,8,Jermaine Mask,Bishop Lynch,81.28,226.8,122.47,204.12,553.38,Single-ply,SBD,M
Boys,82.1,9,Alex Loi,Garland Naaman Forest,78.38,226.8,129.27,190.51,546.58,Single-ply,SBD,M
Boys,82.1,9,Alex Loi,Garland Naaman Forest,78.38,226.8,129.27,190.51,546.58,Single-ply,SBD,M
Boys,82.1,10,Ryan Lara,Frisco Independence,79.38,190.51,124.74,229.06,544.31,Single-ply,SBD,M
Boys,82.1,11,Noe Navejar,Mansfield Timberview,80.47,215.46,124.74,199.58,539.77,Single-ply,SBD,M
Boys,82.1,12,Steven Lucas,Mansfield Timberview,82.1,190.51,124.74,219.99,535.24,Single-ply,SBD,M
Boys,89.81,1,Jaylon Parmes,Everman,88.09,278.96,142.88,272.16,694,Single-ply,SBD,M
Boys,89.81,2,Chris Reyes,Crowley,89.27,254.01,156.49,254.01,664.51,Single-ply,SBD,M
Boys,89.81,3,Bowen Kirkbride,Denison,88.18,272.16,158.76,229.06,659.98,Single-ply,SBD,M
Boys,89.81,4,Jaytron Phillips,Fort Worth Chisholm Trail,89.81,258.55,136.08,240.4,635.03,Single-ply,SBD,M
Boys,89.81,5,Stacy Sublett,North Mesquite,89.36,254.01,124.74,249.48,628.23,Single-ply,SBD,M
Boys,89.81,6,Khaemon Edwards,Everman,86.36,249.48,142.88,231.33,623.69,Single-ply,SBD,M
Boys,89.81,7,Braden Robertson,Weatherford,86.45,242.67,151.95,217.72,612.35,Single-ply,SBD,M
Boys,89.81,8,Jordan Simpson,Carrollton Creekview,88.9,240.4,140.61,222.26,603.28,Single-ply,SBD,M
Boys,89.81,9,Brenden Buggage,Fort Worth Western Hills,84.91,226.8,127.01,226.8,580.6,Single-ply,SBD,M
Boys,89.81,10,Jared Morris,McKinney North,88.45,199.58,127.01,242.67,569.26,Single-ply,SBD,M
Boys,89.81,11,Landon Maston,Cedar Hill,89.45,226.8,108.86,210.92,546.58,Single-ply,SBD,M
Boys,,NS,Kaegun Williams,Cedar Hill,,,,,,Single-ply,SBD,M
Boys,99.79,1,Cole Stewart,Aledo,97.25,285.76,172.37,274.42,732.55,Single-ply,SBD,M
Boys,99.79,2,Ryan Brooks,Dallas Jesuit,98.16,290.3,181.44,233.6,705.34,Single-ply,SBD,M
Boys,99.79,3,Tanner Oliver,Keller Timber Creek,99.34,251.74,165.56,249.48,666.78,Single-ply,SBD,M
Boys,99.79,4,Cameron Williams #7,Keller,92.44,258.55,165.56,233.6,657.71,Single-ply,SBD,M
Boys,99.79,5,Josh Brown #3,North Crowley,97.25,272.16,133.81,240.4,646.37,Single-ply,SBD,M
Boys,99.79,6,Raylon Jones,Fort Worth Arlington Heights,92.53,226.8,156.49,226.8,610.08,Single-ply,SBD,M
Boys,99.79,7,Ezekial Veal,Everman,98.97,249.48,133.81,204.12,587.4,Single-ply,SBD,M
Boys,99.79,8,Tyler Kindig,Wichita Falls Rider,91.26,215.46,138.35,197.31,551.11,Single-ply,SBD,M
Boys,,NS,Kade Ahsley,Lucas Lovejoy,,,,,,Single-ply,SBD,M
Boys,,NS,Charles Ijioma,Little Elm,,,,,,Single-ply,SBD,M
Boys,99.79,DQ,Joseph Herrera #4,Northwest Nelson,97.43,229.06,138.35,,,Single-ply,SBD,M
Boys,99.79,DQ,Mauricio Rojas,Carrollton Turner,96.07,238.14,136.08,,,Single-ply,SBD,M
Boys,109.77,1,Corban James,Fort Worth Arlington Heights,102.51,260.82,165.56,254.01,680.39,Single-ply,SBD,M
Boys,109.77,2,Amir Sa'id,Cedar Hill,104.6,231.33,133.81,238.14,603.28,Single-ply,SBD,M
Boys,109.77,3,Adedoyin Falana,Cedar Hill,100.79,222.26,142.88,231.33,596.47,Single-ply,SBD,M
Boys,109.77,4,Jose Baron,Wichita Falls Rider,108.5,244.94,156.49,188.24,589.67,Single-ply,SBD,M
Boys,109.77,5,Justin Wheeler,Arlington Seguin,100.06,233.6,140.61,204.12,578.33,Single-ply,SBD,M
Boys,109.77,6,Lord Zapata,Garland Naaman Forest,109.23,229.06,142.88,204.12,576.06,Single-ply,SBD,M
Boys,109.77,6,Lord Zapata,Garland Naaman Forest,109.23,229.06,142.88,204.12,576.06,Single-ply,SBD,M
Boys,109.77,7,Tyler Ballard,Frisco Liberty,106.41,235.87,136.08,201.85,573.79,Single-ply,SBD,M
Boys,109.77,8,Matt Hawk,Frisco Independence,101.24,217.72,131.54,219.99,569.26,Single-ply,SBD,M
Boys,109.77,9,Zaire Berry,North Crowley,105.14,217.72,108.86,219.99,546.58,Single-ply,SBD,M
Boys,,NS,Rod McClain,Mansfield Lake Ridge,,,,,,Single-ply,SBD,M
Boys,,NS,Nick Hale,Weatherford,,,,,,Single-ply,SBD,M
Boys,109.77,DQ,Matt Dotson,Northwest Nelson,107.68,222.26,,,,Single-ply,SBD,M
Boys,109.77,DQ,Dylan Branson,Little Elm,105.05,,,,,Single-ply,SBD,M
Boys,109.77,DQ,Drew Smith,Azle,105.87,,,,,Single-ply,SBD,M
Boys,124.74,1,Chris Garcia #7,Prosper,120.75,290.3,199.58,254.01,743.89,Single-ply,SBD,M
Boys,124.74,2,Camren Thompson,Frisco Wakeland,110.77,310.71,142.88,263.08,716.68,Single-ply,SBD,M
Boys,124.74,3,Miller Nguyen,Garland Naaman Forest,120.47,290.3,142.88,269.89,703.07,Single-ply,SBD,M
Boys,124.74,3,Miller Nguyen,Garland Naaman Forest,120.47,290.3,142.88,269.89,703.07,Single-ply,SBD,M
Boys,124.74,4,Houston Miller,Keller,110.59,260.82,124.74,260.82,646.37,Single-ply,SBD,M
Boys,124.74,5,Skylyr Rodriguez,Keller,123.29,254.01,165.56,222.26,641.83,Single-ply,SBD,M
Boys,124.74,6,Glen Waters,Cedar Hill,115.76,226.8,142.88,254.01,623.69,Single-ply,SBD,M
Boys,124.74,7,Jack Davis #1,Richardson Pearce,123.92,219.99,165.56,235.87,621.42,Single-ply,SBD,M
Boys,124.74,8,Justin Watson #1,Fort Worth Boswell,119.66,251.74,138.35,208.65,598.74,Single-ply,SBD,M
Boys,124.74,DQ,Stephon Mudd,Garland Naaman Forest,121.93,208.65,149.69,,,Single-ply,SBD,M
Boys,124.74,DQ,Stephon Mudd,Garland Naaman Forest,121.93,208.65,149.69,,,Single-ply,SBD,M
Boys,124.74,DQ,Quincy Warren,Everman,115.67,,,,,Single-ply,SBD,M
Boys,124.74,DQ,Parker Cupp,Cedar Hill,124.01,,,,,Single-ply,SBD,M
Boys,124.74,DQ,Drew Grisham,McKinney North,116.48,226.8,,,,Single-ply,SBD,M
Boys,124.74,DQ,Brandon Edwards,Weatherford,117.48,,,,,Single-ply,SBD,M
Boys,124.74+,1,Collin Partridge,Wichita Falls Rider,135.26,324.32,181.44,231.33,737.09,Single-ply,SBD,M
Boys,124.74+,2,Clifton Coffey,Cedar Hill,165.56,278.96,176.9,258.55,714.41,Single-ply,SBD,M
Boys,124.74+,3,Perry Radway,McKinney North,136.17,272.16,154.22,272.16,698.53,Single-ply,SBD,M
Boys,124.74+,4,Jake Allsbrooks,Fort Worth Boswell,134.81,328.85,145.15,204.12,678.12,Single-ply,SBD,M
Boys,124.74+,5,Alfredo Cervantes,Royse City,144.24,265.35,165.56,233.6,664.51,Single-ply,SBD,M
Boys,124.74+,6,Kenyette King,North Crowley,142.25,249.48,149.69,244.94,644.1,Single-ply,SBD,M
Boys,124.74+,7,Zach Thomas,McKinney North,135.71,260.82,154.22,226.8,641.83,Single-ply,SBD,M
Boys,124.74+,8,Zach Perry,Fort Worth Arlington Heights,127.19,267.62,138.35,226.8,632.76,Single-ply,SBD,M
Boys,124.74+,9,Dontryll Dever,Wichita Falls,132.72,242.67,156.49,233.6,632.76,Single-ply,SBD,M
Boys,124.74+,10,Laz Garcia,South Garland,137.44,226.8,140.61,247.21,614.62,Single-ply,SBD,M
Boys,124.74+,DQ,Alec Jamar,Frisco Liberty,137.89,272.16,172.37,,,Single-ply,SBD,M
Boys,124.74+,DQ,James Williams #7,Aledo,131.9,281.23,145.15,,,Single-ply,SBD,M
