Division,WeightClassKg,Place,Name,Team,BodyweightKg,Best3SquatKg,Best3BenchKg,Best3DeadliftKg,TotalKg,Equipment,Event,Sex
Boys,55.79,1,Bryce Walker,Houston Madison,55.61,145.15,74.84,156.49,376.48,Single-ply,SBD,M
Boys,55.79,2,Khyle Hailey,Tomball,53.61,120.2,68.04,147.42,335.66,Single-ply,SBD,M
Boys,59.87,1,Andrew Brooks,Houston Madison,58.51,190.51,97.52,190.51,478.54,Single-ply,SBD,M
Boys,59.87,2,Max Baronaske,Tomball,59.06,149.69,108.86,158.76,417.3,Single-ply,SBD,M
Boys,59.87,3,Brian Frank,Houston Madison,58.06,136.08,81.65,142.88,360.61,Single-ply,SBD,M
Boys,67.13,1,Ali Rasheed,Houston Westside,63.32,145.15,92.99,124.74,362.87,Single-ply,SBD,M
Boys,74.84,1,Dillon Baker,Tomball,67.59,165.56,113.4,165.56,444.52,Single-ply,SBD,M
Boys,74.84,2,Tyler King,Tomball,72.12,156.49,83.91,167.83,408.23,Single-ply,SBD,M
Boys,74.84,3,Joseph Ruiz,Tomball,69.85,120.2,83.91,181.44,385.55,Single-ply,SBD,M
Boys,82.1,1,Jamarcus Burks,Houston Madison,80.29,229.06,111.13,206.38,546.58,Single-ply,SBD,M
Boys,82.1,2,Sakiru Asifatu,Houston Westside,81.83,174.63,104.33,183.7,462.66,Single-ply,SBD,M
Boys,82.1,3,Steven Holeman,Houston Westside,79.92,165.56,97.52,188.24,451.32,Single-ply,SBD,M
Boys,89.81,1,Tyler Feuerbacher,Tomball,83.46,170.1,102.06,195.04,467.2,Single-ply,SBD,M
Boys,89.81,2,Daniel Arias,Houston Madison,86.27,142.88,102.06,183.7,428.64,Single-ply,SBD,M
Boys,89.81,3,Christian Decurie,Houston Westside,86.82,165.56,102.06,142.88,410.5,Single-ply,SBD,M
Boys,99.79,1,Eric Alcee,Houston Westside,92.99,192.78,120.2,183.7,496.68,Single-ply,SBD,M
Boys,109.77,1,Roderick Wiltz,Houston Madison,107.95,249.48,151.95,249.48,650.91,Single-ply,SBD,M
Boys,109.77,2,Nick Simpson #5,Houston Madison,107.05,235.87,136.08,249.48,621.42,Single-ply,SBD,M
Boys,109.77,3,William Simpson,Houston Madison,109.77,192.78,115.67,183.7,492.15,Single-ply,SBD,M
Boys,109.77,4,Justin Roundtree,Houston Westside,109.77,190.51,113.4,183.7,487.61,Single-ply,SBD,M
Boys,124.74,1,Chris Rose,Houston Madison,122.02,254.01,140.61,213.19,607.81,Single-ply,SBD,M
Boys,124.74,2,Zach Doyle,Tomball,110.4,219.99,111.13,188.24,519.36,Single-ply,SBD,M
Boys,124.74,3,Chris Nguyen,Houston Westside,113.58,181.44,106.59,161.03,449.06,Single-ply,SBD,M
Boys,124.74+,1,Germain Ifedi,Houston Westside,148.6,215.46,136.08,204.12,555.65,Single-ply,SBD,M
