Name,WeightClassKg,Age,BirthDate,BodyweightKg,Equipment,Squat1Kg,Squat2Kg,Squat3Kg,Squat4Kg,Best3SquatKg,Bench1Kg,Bench2Kg,Bench3Kg,Best3BenchKg,Deadlift1Kg,Deadlift2Kg,Deadlift3Kg,Deadlift4Kg,Best3DeadliftKg,TotalKg,Event,Sex,Division,Place,BirthYear
Chuck Dunbar,52,22,,,Single-ply,,,,,220,,,,137.5,,,,,165,522.5,SBD,M,Open,1,
Joe Steinfeld,52,25,,,Single-ply,,,,,160,,,,112.5,,,,,167.5,440,SBD,M,Open,2,
Doug Heath,52,23,,,Single-ply,,,,,152.5,,,,92.5,,,-195,,170,415,SBD,M,Open,3,
John Redding,52,35,,,Single-ply,-192.5,-192.5,-192.5,,,,,,,,,,,,,SBD,M,Open,DQ,
Robert Lech,56,,,,Single-ply,,,,,210,,,,122.5,,,,,232.5,565,SBD,M,Open,1,
Ernesto Milian,56,,,,Single-ply,,,,,202.5,,,,120,,237.5,-245,,237.5,560,SBD,M,Open,2,
Roger Hopkins,56,,,,Single-ply,-182.5,-182.5,-182.5,,,,,,,,,,,,,SBD,M,Open,DQ,
George Hummel,60,,,,Single-ply,,,,,205,,,,147.5,,,,,245,597.5,SBD,M,Open,1,
Leroy Mabie,60,,,,Single-ply,,,,,197.5,,,,147.5,,,,,237.5,582.5,SBD,M,Open,2,
Raymond Verdonck,60,,,,Single-ply,,,,,210,,,,130,,,,,215,555,SBD,M,Open,3,
Jim Clos,60,,,,Single-ply,,,,,167.5,,,,132.5,,,,,212.5,512.5,SBD,M,Open,4,
Joe Bradley,60,,,,Single-ply,-235,-235,-235,,,,,,,,,,,,,SBD,M,Open,DQ,1956
Clyde Wright,67.5,,,,Single-ply,250,,,,250,152.5,,,152.5,262.5,,,,262.5,665,SBD,M,Open,1,
Jim Rush,67.5,,,,Single-ply,,,,,250,,,,145,,,270,,270,665,SBD,M,Open,2,
Don Jones #4,67.5,,,,Single-ply,,,-260,,240,,,-132.5,120,,,275,,275,635,SBD,M,Open,3,
Michael Facteau,67.5,,,,Single-ply,,,,,222.5,,,,147.5,,,,,262.5,632.5,SBD,M,Open,4,
Lamar Gant,67.5,,,60.33,Single-ply,,,,,215,,,,137.5,,272.5,-292.5,,272.5,625,SBD,M,Open,5,
Phillip Trujillo,67.5,,,,Single-ply,,,,,217.5,,,,167.5,,,,,232.5,617.5,SBD,M,Open,6,
Roger Wright,67.5,,,,Single-ply,,,,,232.5,,,,137.5,,,,,235,605,SBD,M,Open,7,
Mike Joyner,67.5,,,,Single-ply,,,,,195,,,,130,,,,,250,575,SBD,M,Open,8,
Danny Thompson,67.5,,,,Single-ply,,,,,225,,,,185,,,,,,,SBD,M,Open,DQ,
Troy Hicks,67.5,,,,Single-ply,,,,,225,,,,,,,,,,,SBD,M,Open,DQ,
Mike Bridges,75,,,,Single-ply,,320,-325,,320,,197.5,202.5,202.5,275,292.5,297.5,,297.5,820,SBD,M,Open,1,
Rickey Dale Crain,75,,,,Single-ply,297.5,-312.5,317.5,,317.5,,,,170,305,-335,,,305,792.5,SBD,M,Open,2,
Jack Wilson,75,,,,Single-ply,,,,,280,,,,160,,,,,285,725,SBD,M,Open,3,
Joe Spack,75,,,,Single-ply,,,,,242.5,,,,145,,,305,,305,692.5,SBD,M,Open,4,
James Rouse,75,,,,Single-ply,,,,,230,,-190,200,200,,,,,262.5,692.5,SBD,M,Open,5,
Lloyd Wehunt,75,,,,Single-ply,,,,,257.5,,,,155,,,,,277.5,690,SBD,M,Open,6,
Robert Jesurun,75,,,,Single-ply,,,,,242.5,,,,170,,,,,272.5,685,SBD,M,Open,7,
Mike Elliott,75,,,,Single-ply,,,,,262.5,,,,140,,,,,257.5,660,SBD,M,Open,8,
Rick Gaugler,75,,,,Single-ply,,-285,287.5,,287.5,,,,200,,,,,,,SBD,M,Open,DQ,
Mike Zielinski,75,,,,Single-ply,,,,,275,,,,145,,,,,,,SBD,M,Open,DQ,
Steve Baldwin,75,,,,Single-ply,,,,,250,,,,,,,,,,,SBD,M,Open,DQ,
Walter Thomas,82.5,,,,Single-ply,,,,,315,,,200,200,,,310,,310,825,SBD,M,Open,1,
Dennis Wright #1,82.5,,,,Single-ply,,,,,312.5,,,,210,,,295,,295,817.5,SBD,M,Open,2,
John Black #1,82.5,,,,Single-ply,,,,,282.5,,,,197.5,,,,,295,775,SBD,M,Open,3,
Scott Saluzzi,82.5,,,,Single-ply,,,,,272.5,,,,192.5,,,,,305,770,SBD,M,Open,4,
Bryan Wadie,82.5,,,,Single-ply,,,,,295,,,,180,,,,,295,770,SBD,M,Open,5,
Ernie Frantz,82.5,,,,Single-ply,,,,,272.5,,,,185,,,,,310,767.5,SBD,M,Open,6,
Dean Becker,82.5,,,,Single-ply,,,,,295,,,,177.5,,,,,295,767.5,SBD,M,Open,7,
Jim Grudzien,82.5,,,,Single-ply,,,,,277.5,,,,187.5,290,-300,,,290,755,SBD,M,Open,8,
Ted Mossbarger,82.5,,,,Single-ply,,,,,272.5,,,,175,,,,,290,737.5,SBD,M,Open,9,
Steve Gilardi,82.5,,,,Single-ply,,,,,287.5,,,,170,,,,,270,727.5,SBD,M,Open,10,
Fred Hatfield #1,82.5,,,,Single-ply,-305,,,,,,,,,,,,,,,SBD,M,Open,DQ,
BC Johnson,82.5,,,,Single-ply,-297.5,-297.5,-297.5,,,,,,,,,,,,,SBD,M,Open,DQ,
Mike Capasso,82.5,,,,Single-ply,-285,-285,-285,,,,,,,,,,,,,SBD,M,Open,DQ,
Roger Estep,90,,,,Single-ply,,330,-342.5,,330,,,,222.5,,,305,,305,857.5,SBD,M,Open,1,
Jerry Jones,90,,,,Single-ply,-342.5,-342.5,342.5,-357.5,342.5,,,,185,,,,,320,847.5,SBD,M,Open,2,
James Cash,90,,,,Single-ply,,312.5,-325,,312.5,,,,190,,320,-345,,320,822.5,SBD,M,Open,3,
Rich Woods #1,90,,,,Single-ply,,,,,287.5,,,,210,,,,,297.5,795,SBD,M,Open,4,
Gary Sanger,90,,,,Single-ply,,,,,310,,,,192.5,,,,,287.5,790,SBD,M,Open,5,
Frank Watts,90,,,,Single-ply,,,,,267.5,,,,165,,,,,272.5,705,SBD,M,Open,6,
Vince Anello,90,,,,Single-ply,,,305,,305,,,202.5,202.5,-352.5,-352.5,-352.5,,,,SBD,M,Open,DQ,
Sam Mangialardi #1,90,,,,Single-ply,-335,-335,-335,,,,,,,,,,,,,SBD,M,Open,DQ,
Larry Pacifico,100,,,,Single-ply,-347.5,-347.5,347.5,-365,347.5,220,240,-245,240,,,,,327.5,915,SBD,M,Open,1,
Steve Miller #1,100,,,,Single-ply,,,,,305,,,,225,,,,,317.5,847.5,SBD,M,Open,2,
Chip McCain,100,,,,Single-ply,-320,-320,357.5,,357.5,177.5,,,177.5,-340,,,,,,SBD,M,Open,DQ,
Dennis Reed,100,,,,Single-ply,,,352.5,,352.5,,,195,195,-327.5,-327.5,-327.5,,,,SBD,M,Open,DQ,
Louie Simmons,100,,,,Single-ply,,,,,332.5,,,,210,-305,,,,,,SBD,M,Open,DQ,
Frank Castaneda,100,,,,Single-ply,-317.5,,,,317.5,-217.5,-217.5,-217.5,,,,,,,,SBD,M,Open,DQ,
John Kuc,110,,,,Single-ply,,,,,347.5,,,,230,367.5,-377.5,-390,,367.5,945,SBD,M,Open,1,
Terry McCormick,110,,,,Single-ply,,,,,347.5,,,,230,332.5,352.5,,,352.5,930,SBD,M,Open,2,
Carlton Snitkin,110,,,,Single-ply,,,,,337.5,,,,205,,,,,325,867.5,SBD,M,Open,3,
Mark Dimiduk,110,,,,Single-ply,,,,,337.5,,,,220,,,,,310,867.5,SBD,M,Open,4,
Aaron Rawlings,110,,,,Single-ply,,,,,317.5,,,,215,,,,,325,857.5,SBD,M,Open,5,
John Holladay,110,,,,Single-ply,,,,,340,,,,227.5,,,,,287.5,855,SBD,M,Open,6,
Bill Seno,110,,,,Single-ply,,,,,332.5,,,,257.5,-317.5,-317.5,-317.5,,,,SBD,M,Open,DQ,
Holly Evett,110,,,,Single-ply,,,,,327.5,,,,217.5,-320,-320,-320,,,,SBD,M,Open,DQ,
Steve Wilson #1,110,,,,Single-ply,,,,,,,,,,,,,,,,SBD,M,Open,DQ,
Gene Stevens,110,,,,Single-ply,,,,,,,,,,,,,,,,SBD,M,Open,DQ,
Marvin Phillips,110,,,,Single-ply,,,,,,,,,,,,,,,,SBD,M,Open,DQ,
Larry Kidney,125,,,,Single-ply,367.5,377.5,-392.5,,377.5,,,,255,340,-352.5,-352.5,,340,972.5,SBD,M,Open,1,
Ernie Hackett,125,,,,Single-ply,,390,402.5,,402.5,,232.5,-242.5,232.5,332.5,-350,,,332.5,967.5,SBD,M,Open,2,
Clay Patterson #1,125,,,,Single-ply,,,,,337.5,,,,245,,,,,330,912.5,SBD,M,Open,3,
Dave Shaw,125,,,,Single-ply,,,,,292.5,,,,235,357.5,-370,,,357.5,885,SBD,M,Open,4,
Barney Groves,125,,,,Single-ply,,,,,320,,,,227.5,,,,,310,857.5,SBD,M,Open,5,
Doug Young,125,,,,Raw,,,,,25,,267.5,-272.5,267.5,,,,,115,407.5,SBD,M,Open,6,
Tom Hardman,125,,,,Raw,,,,,25,-245,245,-265,245,,,,,,,SBD,M,Open,DQ,
Paul Wrenn,125+,,,154.22,Single-ply,392.5,412.5,432.5,,432.5,,,,197.5,345,,,,345,975,SBD,M,Open,1,
Dave Waddington,125+,,1952-05-10,,Single-ply,410,-427.5,-427.5,,410,252.5,-262.5,-262.5,252.5,-310,310,-337.5,,310,972.5,SBD,M,Open,2,
Dave Keagyy,125+,,,,Single-ply,,,,,365,,,,212.5,,,,,340,917.5,SBD,M,Open,3,
Luke Iams,125+,,,,Raw,,,,,25,260,,,260,,,,,115,400,SBD,M,Open,4,
Bill Kazmaier,125+,,,,Single-ply,,,,,380,,,,280,-365,-365,-365,,,,SBD,M,Open,DQ,
Doyle Kenady,125+,,1948-08-29,,Single-ply,,,,,395,,,,,,,,,,,SBD,M,Open,DQ,
