Division,WeightClassKg,Place,Name,Team,BodyweightKg,Best3SquatKg,Best3BenchKg,Best3DeadliftKg,TotalKg,Equipment,Event,Sex,BirthDate
Boys,51.71,1,Rhett Hutchins,Whitehouse,50.17,117.93,61.23,113.4,292.57,Single-ply,SBD,M,
Boys,55.79,1,Quentin Taylor,Troup,54.98,131.54,72.57,127.01,331.12,Single-ply,SBD,M,
Boys,59.87,1,Cameron Flowers,Whitehouse,58.15,127.01,68.04,138.35,333.39,Single-ply,SBD,M,
Boys,59.87,2,Lukas Gill,Tyler Lee,58.6,120.2,83.91,124.74,328.85,Single-ply,SBD,M,
Boys,67.13,1,D'Cameron Walker,Henderson,67.13,215.46,147.42,188.24,551.11,Single-ply,SBD,M,
Boys,67.13,2,Zander Crittenden,Kerens,66.32,174.63,131.54,183.7,489.88,Single-ply,SBD,M,
Boys,67.13,3,Kaden Mahoney,Troup,65.86,197.31,106.59,158.76,462.66,Single-ply,SBD,M,
Boys,67.13,4,Jeremiah Sheffie,Tyler Lee,64.86,190.51,99.79,167.83,458.13,Single-ply,SBD,M,
Boys,67.13,5,Braiden Miller,Whitehouse,66.5,156.49,99.79,165.56,421.84,Single-ply,SBD,M,
Boys,67.13,6,Van Rainer,Tyler Lee,60.96,142.88,65.77,142.88,351.53,Single-ply,SBD,M,
Boys,67.13,7,Cole Murry,Whitehouse,64.68,113.4,77.11,142.88,333.39,Single-ply,SBD,M,
Boys,67.13,8,Antonio McAdams,Kerens,63.68,122.47,61.23,147.42,331.12,Single-ply,SBD,M,
Boys,67.13,9,Austin Miller,Troup,64.14,117.93,68.04,113.4,299.37,Single-ply,SBD,M,
Boys,67.13,DQ,Bryce Gregory,Tyler Lee,61.05,,,,,Single-ply,SBD,M,
Boys,74.84,1,Jamichael Turman,Tyler Lee,72.57,240.4,129.27,224.53,594.21,Single-ply,SBD,M,
Boys,74.84,2,Ya'Corus Porter,Henderson,74.48,208.65,136.08,238.14,582.87,Single-ply,SBD,M,
Boys,74.84,3,John Cunyus,Henderson,74.21,165.56,115.67,204.12,485.34,Single-ply,SBD,M,
Boys,74.84,4,John Ford #3,Troup,74.21,197.31,106.59,174.63,478.54,Single-ply,SBD,M,
Boys,74.84,5,David Hall,Troup,73.21,167.83,104.33,195.04,467.2,Single-ply,SBD,M,
Boys,74.84,6,Joshua Farrar #2,Whitehouse,74.3,174.63,117.93,174.63,467.2,Single-ply,SBD,M,
Boys,74.84,7,Giovanni Morales,Henderson,70.58,165.56,108.86,188.24,462.66,Single-ply,SBD,M,
Boys,74.84,8,Everado Cazares,Tyler Lee,73.94,172.37,83.91,181.44,437.72,Single-ply,SBD,M,
Boys,74.84,9,Anthony Salgado,Troup,72.57,165.56,90.72,174.63,430.91,Single-ply,SBD,M,
Boys,74.84,10,Jesse Calley,Troup,69.04,163.29,83.91,165.56,412.77,Single-ply,SBD,M,
Boys,74.84,11,Cason McFarlin,Whitehouse,70.58,136.08,102.06,172.37,410.5,Single-ply,SBD,M,
Boys,74.84,12,Matthew Martin,Longview Spring Hill,74.66,170.1,68.04,172.37,410.5,Single-ply,SBD,M,
Boys,74.84,13,Koal Minor,New London West Rusk,71.67,142.88,81.65,165.56,390.09,Single-ply,SBD,M,
Boys,74.84,14,Tristan Josey,Jacksonville,74.39,140.61,86.18,145.15,371.95,Single-ply,SBD,M,
Boys,74.84,15,Ty Chandler,Jacksonville,73.57,124.74,72.57,136.08,333.39,Single-ply,SBD,M,
Boys,82.1,1,Sean Rogers,Rusk,81.28,192.78,120.2,210.92,523.9,Single-ply,SBD,M,
Boys,82.1,2,Jacob Huddleston,Jacksonville,75.66,192.78,108.86,208.65,510.29,Single-ply,SBD,M,
Boys,82.1,3,James Greenalch,New London West Rusk,80.2,174.63,133.81,201.85,510.29,Single-ply,SBD,M,
Boys,82.1,4,Garrett Myre,Kerens,81.19,170.1,104.33,192.78,467.2,Single-ply,SBD,M,
Boys,82.1,5,Kaden McFaul,Longview Spring Hill,78.74,181.44,79.38,181.44,442.25,Single-ply,SBD,M,
Boys,82.1,6,Jeremiah Edwards,New London West Rusk,80.92,188.24,92.99,142.88,424.11,Single-ply,SBD,M,
Boys,82.1,7,Donovan Robinson,Whitehouse,77.2,158.76,92.99,158.76,410.5,Single-ply,SBD,M,
Boys,82.1,8,Bryan Martinez,Whitehouse,79.74,113.4,63.5,147.42,324.32,Single-ply,SBD,M,
Boys,82.1,DQ,Darrion Jones,Jacksonville,77.75,165.56,117.93,,,Single-ply,SBD,M,
Boys,89.81,1,Caleb Bolay,Whitehouse,87.82,192.78,174.63,181.44,548.85,Single-ply,SBD,M,
Boys,89.81,2,Bayne Brinkman,Longview Spring Hill,84.64,149.69,79.38,179.17,408.23,Single-ply,SBD,M,
Boys,89.81,3,Anthony Cummings,Jacksonville,87.36,131.54,88.45,165.56,385.55,Single-ply,SBD,M,
Boys,89.81,4,Calvin Mason,New London West Rusk,84.46,142.88,81.65,158.76,383.29,Single-ply,SBD,M,
Boys,89.81,5,Valente Rodriguez,New London West Rusk,87.18,111.13,65.77,142.88,319.78,Single-ply,SBD,M,
Boys,99.79,1,Brayden Bulman,Whitehouse,94.62,283.5,161.03,258.55,703.07,Single-ply,SBD,M,
Boys,99.79,2,Cameron Feliciano,Longview Spring Hill,92.53,215.46,108.86,170.1,494.42,Single-ply,SBD,M,
Boys,99.79,3,Caleb Jones,Whitehouse,90.99,174.63,113.4,167.83,455.86,Single-ply,SBD,M,
Boys,99.79,4,Corden Blount,Longview Spring Hill,92.35,185.97,77.11,181.44,444.52,Single-ply,SBD,M,
Boys,99.79,5,Billy Bateman,Jacksonville,98.16,154.22,102.06,172.37,428.64,Single-ply,SBD,M,
Boys,99.79,6,Sean Minehart,Tyler Lee,98.97,154.22,95.25,170.1,419.57,Single-ply,SBD,M,
Boys,99.79,7,Brantley Bauer,Jacksonville,94.17,165.56,81.65,161.03,408.23,Single-ply,SBD,M,
Boys,99.79,8,Westin Womble,Kerens,92.44,163.29,90.72,149.69,403.7,Single-ply,SBD,M,
Boys,99.79,9,Kye McKinley,Longview Spring Hill,97.07,136.08,58.97,149.69,344.73,Single-ply,SBD,M,
Boys,99.79,10,Kaden Ramo,Longview Spring Hill,95.07,127.01,65.77,147.42,340.19,Single-ply,SBD,M,
Boys,109.77,1,Liam Huynh,Whitehouse,101.33,233.6,158.76,226.8,619.15,Single-ply,SBD,M,
Boys,109.77,2,Nick Acker,Rusk,101.88,254.01,131.54,208.65,594.21,Single-ply,SBD,M,
Boys,109.77,3,Tariq Robinson,Tyler Lee,108.77,226.8,149.69,192.78,569.26,Single-ply,SBD,M,
Boys,109.77,4,Jacob Kimbrough,Longview Spring Hill,109.32,226.8,120.2,204.12,551.11,Single-ply,SBD,M,
Boys,109.77,5,Zala Antonio,Jacksonville,108.59,201.85,106.59,204.12,512.56,Single-ply,SBD,M,
Boys,109.77,6,Lane Gilchrest,Rusk,102.06,204.12,106.59,199.58,510.29,Single-ply,SBD,M,
Boys,109.77,7,Brandon Krenek,Longview Spring Hill,104.78,204.12,122.47,183.7,510.29,Single-ply,SBD,M,
Boys,109.77,8,Emiliano Corona,Jacksonville,100.15,167.83,97.52,195.04,460.4,Single-ply,SBD,M,
Boys,109.77,9,Alan Sandoval,New London West Rusk,104.69,156.49,74.84,163.29,394.63,Single-ply,SBD,M,
Boys,109.77,10,Jorge Bustamante,New London West Rusk,103.78,124.74,77.11,142.88,344.73,Single-ply,SBD,M,
Boys,109.77,11,Davion Simpson,Longview Spring Hill,101.79,106.59,49.9,124.74,281.23,Single-ply,SBD,M,
Boys,109.77,12,Steven Alexander,Whitehouse,102.51,104.33,63.5,111.13,278.96,Single-ply,SBD,M,
Boys,109.77,DQ,Spencer Allen,Troup,103.15,174.63,90.72,,,Single-ply,SBD,M,
Boys,109.77,DQ,Eujayuion Mealister,Henderson,107.32,219.99,140.61,,,Single-ply,SBD,M,
Boys,124.74,1,Lance Deal,Whitehouse,113.94,217.72,147.42,238.14,603.28,Single-ply,SBD,M,
Boys,124.74,2,Devin Fields,Henderson,119.75,229.06,147.42,215.46,591.94,Single-ply,SBD,M,
Boys,124.74,3,Augustin Jaimes,Troup,115.85,208.65,104.33,185.97,498.95,Single-ply,SBD,M,
Boys,124.74,4,Aiden Gay,Jacksonville,119.84,181.44,124.74,181.44,487.61,Single-ply,SBD,M,
Boys,124.74,5,Kade Fry,Tyler Lee,110.77,185.97,106.59,174.63,467.2,Single-ply,SBD,M,
Boys,124.74,6,Brayden Walker #3,New London West Rusk,111.67,133.81,83.91,183.7,401.43,Single-ply,SBD,M,
Boys,124.74+,1,Garrett Blalock,Rusk,131.18,238.14,151.95,233.6,623.69,Single-ply,SBD,M,
Boys,124.74+,2,Rylan Reynolds,Rusk,126.01,244.94,113.4,233.6,591.94,Single-ply,SBD,M,
Boys,124.74+,3,Samuel Quintanilla,Henderson,127.1,219.99,111.13,208.65,539.77,Single-ply,SBD,M,
Boys,124.74+,4,Mason Adams,Henderson,133.17,219.99,111.13,181.44,512.56,Single-ply,SBD,M,
Boys,124.74+,5,Caleb Power,Whitehouse,129.09,188.24,113.4,197.31,498.95,Single-ply,SBD,M,
