Division,WeightClassKg,Place,Name,Team,BodyweightKg,Best3SquatKg,Best3BenchKg,Best3DeadliftKg,TotalKg,Equipment,Event,Sex
Boys,51.71,1,Tristan Pierce,Belton,51.71,106.59,61.23,124.74,292.57,Single-ply,SBD,M
Boys,51.71,2,Gauge Nelson,Copperas Cove,51.35,92.99,52.16,111.13,256.28,Single-ply,SBD,M
Boys,51.71,3,Dylan Charles,Gatesville,51.53,92.99,49.9,99.79,242.67,Single-ply,SBD,M
Boys,51.71,4,Joseph Knox,Belton,50.44,86.18,47.63,97.52,231.33,Single-ply,SBD,M
Boys,51.71,5,Jim Langerman,Waco Midway,51.26,65.77,40.82,83.91,190.51,Single-ply,SBD,M
Boys,51.71,6,Charles Neal,Copperas Cove,38.1,68.04,34.02,83.91,185.97,Single-ply,SBD,M
Boys,55.79,1,Joe-Angel Carpenter,Troy,55.52,138.35,92.99,151.95,383.29,Single-ply,SBD,M
Boys,55.79,2,Max Castelli,Belton,55.7,131.54,70.31,142.88,344.73,Single-ply,SBD,M
Boys,55.79,3,Michael Palmer,Little River Academy,55.79,117.93,65.77,156.49,340.19,Single-ply,SBD,M
Boys,55.79,4,Colby Williamson,Troy,55.79,111.13,72.57,113.4,297.1,Single-ply,SBD,M
Boys,55.79,5,Joseph Barnes,Gatesville,54.34,92.99,56.7,117.93,267.62,Single-ply,SBD,M
Boys,55.79,DQ,Hao Tran,Gatesville,55.61,136.08,,,,Single-ply,SBD,M
Boys,59.87,1,Avery Rodriguez #3,Temple,56.97,147.42,95.25,151.95,394.63,Single-ply,SBD,M
Boys,59.87,2,Brent Wheeler,Belton,59.06,149.69,92.99,151.95,394.63,Single-ply,SBD,M
Boys,59.87,3,Michael Oster,Troy,55.97,129.27,81.65,154.22,365.14,Single-ply,SBD,M
Boys,59.87,4,Jaylen Montgomery,Waco Midway,59.78,127.01,88.45,140.61,356.07,Single-ply,SBD,M
Boys,59.87,5,Kyle Gascon,Belton,56.61,138.35,58.97,117.93,315.25,Single-ply,SBD,M
Boys,59.87,6,Nathan Hunt,Belton,59.51,117.93,68.04,129.27,315.25,Single-ply,SBD,M
Boys,59.87,7,Andrew Medina,Belton,56.79,124.74,54.43,127.01,306.17,Single-ply,SBD,M
Boys,67.13,1,Trestan Hudnall,Killeen Ellison,65.14,188.24,113.4,199.58,501.22,Single-ply,SBD,M
Boys,67.13,2,Christian Castillo,Belton,67.13,174.63,97.52,181.44,453.59,Single-ply,SBD,M
Boys,67.13,3,Patrick Frazho,Belton,64.86,167.83,99.79,176.9,444.52,Single-ply,SBD,M
Boys,67.13,4,Gavin Freeman,Little River Academy,66.86,161.03,102.06,172.37,435.45,Single-ply,SBD,M
Boys,67.13,5,Vicente Torres,Troy,66.32,136.08,88.45,151.95,376.48,Single-ply,SBD,M
Boys,67.13,6,Anthony Arnold,Lampasas,65.86,129.27,90.72,151.95,371.95,Single-ply,SBD,M
Boys,67.13,7,Josh Estes,Troy,65.59,124.74,74.84,163.29,362.87,Single-ply,SBD,M
Boys,67.13,8,Corbin Bush,Little River Academy,66.04,136.08,72.57,151.95,360.61,Single-ply,SBD,M
Boys,67.13,9,Jeremeh Casiquin,Copperas Cove,62.78,117.93,68.04,158.76,344.73,Single-ply,SBD,M
Boys,67.13,10,Gerald Fountain,Belton,65.05,111.13,79.38,147.42,337.93,Single-ply,SBD,M
Boys,67.13,11,Tarin Morrow,Copperas Cove,64.95,111.13,70.31,133.81,315.25,Single-ply,SBD,M
Boys,67.13,12,Nathan Morrow,Killeen Ellison,67.13,90.72,61.23,136.08,288.03,Single-ply,SBD,M
Boys,67.13,DQ,Thomas McVade,Temple,67.13,,,,,Single-ply,SBD,M
Boys,74.84,1,Kyleland Sauls,Temple,74.75,210.92,131.54,204.12,546.58,Single-ply,SBD,M
Boys,74.84,2,Dwight Roberts,Temple,68.58,195.04,131.54,217.72,544.31,Single-ply,SBD,M
Boys,74.84,3,Devyn Raper,Belton,74.71,176.9,117.93,215.46,510.29,Single-ply,SBD,M
Boys,74.84,4,Kory Young,Killeen Ellison,74.75,197.31,97.52,197.31,492.15,Single-ply,SBD,M
Boys,74.84,5,Samuel Garcia,Belton,71.76,158.76,108.86,188.24,455.86,Single-ply,SBD,M
Boys,74.84,6,Dante Frederick,Copperas Cove,71.67,158.76,104.33,167.83,430.91,Single-ply,SBD,M
Boys,74.84,7,Marshall Conde,Little River Academy,68.49,147.42,97.52,172.37,417.3,Single-ply,SBD,M
Boys,74.84,8,Ismar Gonzales,Lampasas,73.39,140.61,97.52,170.1,408.23,Single-ply,SBD,M
Boys,74.84,9,Jason Andrews,Lampasas,69.4,127.01,99.79,158.76,385.55,Single-ply,SBD,M
Boys,74.84,10,Keagan Richardson,Lampasas,73.66,149.69,86.18,149.69,385.55,Single-ply,SBD,M
Boys,74.84,11,Derian Dudik,Little River Academy,69.58,122.47,86.18,145.15,353.8,Single-ply,SBD,M
Boys,74.84,DQ,Seth Vela,Waco Midway,74.12,176.9,,,,Single-ply,SBD,M
Boys,82.1,1,Hunter Duzat,Little River Academy,79.83,254.01,161.03,240.4,655.44,Single-ply,SBD,M
Boys,82.1,2,Craig Dawson,Waco Midway,76.2,226.8,136.08,199.58,562.45,Single-ply,SBD,M
Boys,82.1,3,Robert Nicholas,Killeen Ellison,78.02,197.31,104.33,206.38,508.02,Single-ply,SBD,M
Boys,82.1,4,Easton Simpson,Copperas Cove,77.56,192.78,104.33,183.7,480.81,Single-ply,SBD,M
Boys,82.1,5,Jacob Carney,Copperas Cove,81.83,174.63,99.79,199.58,474,Single-ply,SBD,M
Boys,82.1,6,Darrell Quichacho,Copperas Cove,82.1,188.24,108.86,176.9,474,Single-ply,SBD,M
Boys,82.1,7,Keaton Kaulfus,Belton,81.65,167.83,111.13,165.56,444.52,Single-ply,SBD,M
Boys,82.1,8,James Hogan,Lampasas,77.02,149.69,99.79,167.83,417.3,Single-ply,SBD,M
Boys,82.1,9,Ian McKinney,Lampasas,77.2,151.95,68.04,156.49,376.48,Single-ply,SBD,M
Boys,82.1,10,Braeden Hopson,Lampasas,78.43,133.81,81.65,156.49,371.95,Single-ply,SBD,M
Boys,82.1,11,Deagan Oosse,Troy,78.29,138.35,77.11,151.95,367.41,Single-ply,SBD,M
Boys,82.1,12,Justin Clark,Gatesville,79.02,113.4,63.5,136.08,312.98,Single-ply,SBD,M
Boys,82.1,DQ,Jacob Mahood,Troy,81.1,,,,,Single-ply,SBD,M
Boys,89.81,1,Cortney Young #2,Rogers,89.54,249.48,156.49,215.46,621.42,Single-ply,SBD,M
Boys,89.81,2,Tim Edwards,Copperas Cove,86.18,201.85,113.4,192.78,508.02,Single-ply,SBD,M
Boys,89.81,3,Kobe Bankston,Temple,88.36,172.37,117.93,195.04,485.34,Single-ply,SBD,M
Boys,89.81,4,Mark Gastelo,Copperas Cove,89.09,161.03,102.06,185.97,449.06,Single-ply,SBD,M
Boys,89.81,5,Randy Schoolcraft,Belton,88.09,174.63,106.59,145.15,426.38,Single-ply,SBD,M
Boys,89.81,6,Nate David,Copperas Cove,89.72,158.76,81.65,176.9,417.3,Single-ply,SBD,M
Boys,89.81,7,Luis George,Copperas Cove,83.28,108.86,86.18,172.37,367.41,Single-ply,SBD,M
Boys,89.81,8,Malik Jackson,Belton,85.73,129.27,83.91,140.61,353.8,Single-ply,SBD,M
Boys,89.81,9,Ethan Trotter,Gatesville,85.28,124.74,72.57,136.08,333.39,Single-ply,SBD,M
Boys,89.81,10,Konnor Peronto,Killeen Ellison,82.64,102.06,68.04,124.74,294.84,Single-ply,SBD,M
Boys,99.79,1,Alex Falcon,Troy,90.9,249.48,149.69,254.01,653.17,Single-ply,SBD,M
Boys,99.79,2,James Carpenter,Rogers,92.17,217.72,147.42,219.99,585.13,Single-ply,SBD,M
Boys,99.79,3,Aubrey Kelly,Killeen Ellison,97.07,235.87,102.06,229.06,566.99,Single-ply,SBD,M
Boys,99.79,4,Devon Taplin,Belton,96.34,215.46,142.88,206.38,564.72,Single-ply,SBD,M
Boys,99.79,5,Devin Martinez,Belton,97.89,215.46,131.54,215.46,562.45,Single-ply,SBD,M
Boys,99.79,6,Zachary Hoyle,Copperas Cove,98.61,215.46,122.47,219.99,557.92,Single-ply,SBD,M
Boys,99.79,7,D'Ashton Merida,Temple,98.43,197.31,120.2,185.97,503.49,Single-ply,SBD,M
Boys,99.79,8,Garrett Orange,Belton,97.34,188.24,113.4,190.51,492.15,Single-ply,SBD,M
Boys,99.79,9,Deric Rocha,Copperas Cove,93.53,199.58,99.79,181.44,480.81,Single-ply,SBD,M
Boys,99.79,10,Chris Hooper,Temple,92.8,172.37,115.67,188.24,476.27,Single-ply,SBD,M
Boys,99.79,11,Cody Osborn,Lampasas,99.43,165.56,104.33,170.1,439.98,Single-ply,SBD,M
Boys,99.79,12,X White,Temple,96.43,161.03,102.06,170.1,433.18,Single-ply,SBD,M
Boys,99.79,13,Christian Eseroma,Copperas Cove,92.9,167.83,97.52,163.29,428.64,Single-ply,SBD,M
Boys,99.79,14,David Orozco,Copperas Cove,97.98,149.69,83.91,158.76,392.36,Single-ply,SBD,M
Boys,99.79,15,Jarrett Murrow,Troy,95.71,142.88,81.65,154.22,378.75,Single-ply,SBD,M
Boys,99.79,16,Kolby Peronto,Killeen Ellison,91.63,113.4,61.23,131.54,306.17,Single-ply,SBD,M
Boys,109.77,1,Chandler Strmiska,Little River Academy,108.86,260.82,204.12,267.62,732.55,Single-ply,SBD,M
Boys,109.77,2,Zach Solano,Rogers,106.32,274.42,185.97,217.72,678.12,Single-ply,SBD,M
Boys,109.77,3,Sammy Rodriguez,Temple,109.41,231.33,140.61,217.72,589.67,Single-ply,SBD,M
Boys,109.77,4,Kendrick Johnson,Temple,101.42,213.19,127.01,188.24,528.44,Single-ply,SBD,M
Boys,109.77,5,Vernon Walker,Waco Midway,105.14,199.58,99.79,190.51,489.88,Single-ply,SBD,M
Boys,109.77,6,Connor Laughrin,Gatesville,102.24,183.7,111.13,188.24,483.08,Single-ply,SBD,M
Boys,109.77,7,Andrew Bullock,Waco Midway,103.06,181.44,106.59,190.51,478.54,Single-ply,SBD,M
Boys,109.77,8,Winston Vasquez,Copperas Cove,104.05,192.78,95.25,167.83,455.86,Single-ply,SBD,M
Boys,109.77,9,Isiah Fach,Temple,107.68,183.7,95.25,174.63,453.59,Single-ply,SBD,M
Boys,109.77,10,Thomas Barnhill,Waco Midway,109.77,136.08,74.84,142.88,353.8,Single-ply,SBD,M
Boys,124.74,1,Veshawn Shellman,Killeen Ellison,118.39,265.35,149.69,249.48,664.51,Single-ply,SBD,M
Boys,124.74,2,Antares Gillespie,Killeen Ellison,114.76,240.4,138.35,260.82,639.57,Single-ply,SBD,M
Boys,124.74,3,Jim Hitchcock,Gatesville,118.93,242.67,142.88,233.6,619.15,Single-ply,SBD,M
Boys,124.74,4,Sidney Sherwood,Belton,123.83,242.67,161.03,190.51,594.21,Single-ply,SBD,M
Boys,124.74,5,Jacob Snoddy,Gatesville,111.58,201.85,140.61,215.46,557.92,Single-ply,SBD,M
Boys,124.74,6,Tj Franklin,Temple,123.38,197.31,133.81,204.12,535.24,Single-ply,SBD,M
Boys,124.74,7,Daylan Littlejohn,Killeen Ellison,114.31,208.65,104.33,210.92,523.9,Single-ply,SBD,M
Boys,124.74,8,Wyatt Gardner,Little River Academy,113.22,192.78,136.08,190.51,519.36,Single-ply,SBD,M
Boys,124.74,9,Noah Castillo,Temple,116.66,188.24,138.35,185.97,512.56,Single-ply,SBD,M
Boys,124.74,10,Zakary Richards,Waco Midway,122.02,197.31,120.2,192.78,510.29,Single-ply,SBD,M
Boys,124.74,11,John Gorrell,Waco Midway,115.67,192.78,127.01,181.44,501.22,Single-ply,SBD,M
Boys,124.74,12,Jason Marek,Little River Academy,112.13,181.44,129.27,181.44,492.15,Single-ply,SBD,M
Boys,124.74,13,Bryan Luna,Belton,117.12,192.78,120.2,174.63,487.61,Single-ply,SBD,M
Boys,124.74,14,DelRay Judd,Copperas Cove,116.66,158.76,104.33,165.56,428.64,Single-ply,SBD,M
Boys,124.74,15,Chase McLaughlin,Belton,112.13,145.15,95.25,165.56,405.97,Single-ply,SBD,M
Boys,124.74,DQ,John Montemayor,Waco Midway,117.75,188.24,117.93,,,Single-ply,SBD,M
Boys,124.74+,1,Keith Jackson II,Killeen Ellison,170.1,331.12,145.15,249.48,725.75,Single-ply,SBD,M
Boys,124.74+,2,Phillip Haskins,Temple,133.63,251.74,156.49,256.28,664.51,Single-ply,SBD,M
Boys,124.74+,3,Aaron Shanahan,Copperas Cove,140.89,249.48,124.74,229.06,603.28,Single-ply,SBD,M
Boys,124.74+,4,Tre Colbert,Temple,133.27,204.12,147.42,204.12,555.65,Single-ply,SBD,M
Boys,124.74+,5,Joshua Echeveria,Waco Midway,135.35,199.58,104.33,204.12,508.02,Single-ply,SBD,M
Boys,124.74+,6,Troy Glaser,Rogers,149.59,215.46,106.59,172.37,494.42,Single-ply,SBD,M
Boys,124.74+,7,Markel Carter,Temple,127.19,172.37,127.01,188.24,487.61,Single-ply,SBD,M
Boys,124.74+,8,Dakari White,Temple,132.63,174.63,120.2,165.56,460.4,Single-ply,SBD,M
Boys,124.74+,9,Daniel Lopez #6,Temple,138.62,158.76,111.13,188.24,458.13,Single-ply,SBD,M
Boys,124.74+,10,Colton Sherwood,Copperas Cove,136.53,147.42,99.79,158.76,405.97,Single-ply,SBD,M
Boys,124.74+,11,Jaxson Langford,Killeen Ellison,164.65,142.88,77.11,145.15,365.14,Single-ply,SBD,M
Boys,,NS,Dominic Gomez,Killeen Ellison,,,,,,Single-ply,SBD,M
Boys,,NS,Weston Brown,Gatesville,,,,,,Single-ply,SBD,M
Boys,,NS,Kyle Strmiska,Gatesville,,,,,,Single-ply,SBD,M
Boys,,NS,Ripley Kiser,Lampasas,,,,,,Single-ply,SBD,M
Boys,,NS,Chisholm Lander,Lampasas,,,,,,Single-ply,SBD,M
Boys,,NS,Case Brister,Lampasas,,,,,,Single-ply,SBD,M
Boys,,NS,Joshua Langford,Copperas Cove,,,,,,Single-ply,SBD,M
Boys,,NS,Giovanni King,Copperas Cove,,,,,,Single-ply,SBD,M
Boys,,NS,Kevin Vaughn,Belton,,,,,,Single-ply,SBD,M
Boys,,NS,Jayven Taylor,Temple,,,,,,Single-ply,SBD,M
Boys,,NS,Russell Hogue,Temple,,,,,,Single-ply,SBD,M
Boys,,NS,Dalton Glover,Little River Academy,,,,,,Single-ply,SBD,M
Boys,,NS,Daniel Ford,Waco Midway,,,,,,Single-ply,SBD,M
Boys,,NS,Robert Ursua,Waco Midway,,,,,,Single-ply,SBD,M
Boys,,NS,David Evans,Troy,,,,,,Single-ply,SBD,M
Boys,,NS,Ricky Guardiola,Troy,,,,,,Single-ply,SBD,M
